<?xml version="1.0" encoding="UTF-8" standalone="no"?>
<svg
   xmlns:dc="http://purl.org/dc/elements/1.1/"
   xmlns:cc="http://creativecommons.org/ns#"
   xmlns:rdf="http://www.w3.org/1999/02/22-rdf-syntax-ns#"
   xmlns:svg="http://www.w3.org/2000/svg"
   xmlns="http://www.w3.org/2000/svg"
   xmlns:sodipodi="http://sodipodi.sourceforge.net/DTD/sodipodi-0.dtd"
   xmlns:inkscape="http://www.inkscape.org/namespaces/inkscape"
   sodipodi:docname="logo.svg"
   inkscape:version="0.92.3 (2405546, 2018-03-11)"
   id="svg8"
   version="1.1"
   viewBox="0 0 210 250"
   height="250mm"
   width="210mm"
   inkscape:export-filename="/home/magnus/repos/trainstation/doc/_static/logo.png"
   inkscape:export-xdpi="72.57"
   inkscape:export-ydpi="72.57">
  <defs
     id="defs2" />
  <sodipodi:namedview
     inkscape:window-maximized="1"
     inkscape:window-y="25"
     inkscape:window-x="0"
     inkscape:window-height="1391"
     inkscape:window-width="2560"
     inkscape:snap-global="false"
     showgrid="false"
     inkscape:document-rotation="0"
     inkscape:current-layer="layer2"
     inkscape:document-units="mm"
     inkscape:cy="426.21382"
     inkscape:cx="-223.05484"
     inkscape:zoom="0.74564396"
     inkscape:pageshadow="2"
     inkscape:pageopacity="0"
     borderopacity="1.0"
     bordercolor="#666666"
     pagecolor="#ffffff"
     id="base"
     inkscape:pagecheckerboard="false" />
  <metadata
     id="metadata5">
    <rdf:RDF>
      <cc:Work
         rdf:about="">
        <dc:format>image/svg+xml</dc:format>
        <dc:type
           rdf:resource="http://purl.org/dc/dcmitype/StillImage" />
        <dc:title></dc:title>
      </cc:Work>
    </rdf:RDF>
  </metadata>
  <g
     style="display:inline"
     inkscape:label="crane"
     id="layer2"
     inkscape:groupmode="layer"
     transform="translate(0,-47)">
    <path
       sodipodi:nodetypes="ccccccccccccccccssscc"
       inkscape:connector-curvature="0"
       id="path848"
       d="m 93.533008,52.730844 c -0.297691,67.732026 95.994322,69.986286 44.178542,151.134916 -10.0388,37.25458 13.16942,81.26775 15.19525,84.21743 h -4.44404 c -0.63878,-2.94394 -12.73254,-43.55332 -25.30722,-78.28918 -12.27699,34.04796 -29.445135,54.56994 -39.332862,78.28918 H 78.90229 c 48.07336,-61.77535 25.94575,-118.52419 -25.265016,-46.79355 1.795736,-15.45247 8.014249,-27.8159 15.499112,-33.08857 -12.005842,-2.41433 -23.477866,6.84723 -34.016038,17.16974 4.722951,-14.52545 19.146341,-26.89017 29.205674,-31.58568 -9.639274,-4.83293 -25.768343,2.2675 -37.486647,9.90423 8.816388,-14.48433 23.879612,-23.94785 39.533903,-24.10335 -9.828117,-6.03323 -26.648855,-3.93315 -39.6806,4.15571 8.070038,-10.42545 25.721224,-17.59883 42.658773,-16.63916 -7.863396,-8.34637 -19.175662,-7.61237 -31.458329,-2.5948 32.288065,-32.07311 67.004658,26.51083 93.117748,-12.41151 14.11009,-21.03152 -18.32588,-45.86249 -39.001269,-65.046924 -5.292218,-4.910574 -2.93381,-8.541909 -0.70564,-16.714587 1.63574,-5.999674 0.622757,-11.077558 2.229047,-17.603735 z"
       style="fill:#705543;fill-opacity:1;stroke:none;stroke-width:0.38561001px;stroke-linecap:butt;stroke-linejoin:miter;stroke-opacity:1" />
  </g>
</svg>
